{
  "title_selectors": [
    "//h1[@class=\"post-title\"]"
  ],
  "body_selectors": [
    "//div[contains(@class, 'post-content')]"
  ],
  "date_selectors": null,
  "author_selectors": [
    "//div[@class=\"post-informations\"]//a[@class=\"highlight\"]"
  ],
  "strip_selectors": [
    "//div[@class=\"post-informations\"]"
  ],
  "strip_id_or_class": null,
  "strip_image_src": null,
  "native_ad_selectors": null,
  "tidy": false,
  "prune": false,
  "autodetect_on_failure": true,
  "single_page_link_selectors": null,
  "next_page_link_selectors": null,
  "replace_strings": null,
  "http_headers": null,
  "tests": [
    {
      "url": "https://www.canardpc.com/357/fouine-peaks-thimbleweed-park",
      "contains": []
    }
  ]
}
