{
  "title_selectors": [
    "//div[@id='content-header']/h1"
  ],
  "body_selectors": [
    "//article[@class='story-article'] | //div[@id='A']"
  ],
  "date_selectors": null,
  "author_selectors": [
    "//div[@class='article-origins']"
  ],
  "strip_selectors": [
    "//nav",
    "//ul[@class='lookupLinksArtikel']",
    "//meta",
    "//div[@itemprop='publisher']",
    "//div[@id='content-header']",
    "//div[@id='pageTop']",
    "//div[@id='toolbar']",
    "//div[@id='articleTools']",
    "//div[@id='weiterLesen']",
    "//div[@id='communityCanvas']",
    "//div[@class='credits']",
    "//div[@id='feature-cover']",
    "//div[@id='feature-meta']",
    "//li[@class='empty']",
    "//ul[@class='lookup-links']",
    "//p[@class='article-pubdate']",
    "//aside[@data-type='supplemental']",
    "//div[@class='article-byline']",
    "//div[@class='article-meta']",
    "//footer[starts-with(text(), 'Foto:')]"
  ],
  "strip_id_or_class": [
    "article-kicker",
    "article-title",
    "toolbar"
  ],
  "strip_image_src": null,
  "native_ad_selectors": null,
  "tidy": false,
  "prune": false,
  "autodetect_on_failure": true,
  "single_page_link_selectors": null,
  "next_page_link_selectors": null,
  "replace_strings": [
    [
      "0 ? postingCount() : '' \"\u003e",
      ""
    ]
  ],
  "http_headers": {
    "Cookie": "DSGVO_ZUSAGE_V1=true"
  },
  "tests": [
    {
      "url": "http://derstandard.at/rss",
      "contains": []
    },
    {
      "url": "http://derstandard.at/2000033602592/40-Jahre-fuer-einen-der-nicht-gemeinsam-leben-wollte",
      "contains": []
    },
    {
      "url": "http://derstandard.at/2000031826169/Die-Mittagspause-ist-den-meisten-heilig",
      "contains": []
    },
    {
      "url": "http://derstandard.at/2000032076109/Fordern-wir-die-totale-Ueberwachung",
      "contains": []
    },
    {
      "url": "https://www.derstandard.at/jetzt/livebericht/2000135273905/uno-generalsekretaer-guterres-trifft-in-kiew-und-am-donnerstag-selenskyj?responsive=false",
      "contains": []
    }
  ]
}
