{
  "title_selectors": null,
  "body_selectors": [
    "//main"
  ],
  "date_selectors": null,
  "author_selectors": null,
  "strip_selectors": [
    "//aside",
    "//div[@class='provider-multi-box']",
    "//div[@class='list list--mb']",
    "//nav[@class='pagination']/following-sibling::* | //nav[@class='pagination']/self::nav",
    "//em[contains(text(), 'Fortsetzung des Artikels')]/preceding-sibling::hr | //em[contains(text(), 'Fortsetzung des Artikels')]/following-sibling::hr[1] | //em[contains(text(), 'Fortsetzung des Artikels')]/self::em"
  ],
  "strip_id_or_class": [
    "article__header"
  ],
  "strip_image_src": null,
  "native_ad_selectors": null,
  "tidy": false,
  "prune": false,
  "autodetect_on_failure": true,
  "single_page_link_selectors": null,
  "next_page_link_selectors": [
    "//a[@title='Eine Seite vor']"
  ],
  "replace_strings": [
    [
      "\u003csource media=\"",
      "\u003cimg media=\""
    ],
    [
      "srcset=\"http",
      "src=\"http"
    ]
  ],
  "http_headers": null,
  "tests": [
    {
      "url": "http://www.elektroniknet.de/elektronik-automotive/wirtschaft/aus-quattro-gmbh-wird-audi-sport-136464.html",
      "contains": [
        "etwa 1.200 Mitarbeiter an den Standorten Neckarsulm und Ingolstadt"
      ]
    },
    {
      "url": "https://www.elektroniknet.de/messen-testen/sensorik/immenses-marktwachstum-fuer-halbleitersensoren-erwartet.207129.html",
      "contains": [
        "Sensorik und Automobiltechnik bilden eine Symbiose"
      ]
    }
  ]
}
