{
  "title_selectors": null,
  "body_selectors": [
    "//article"
  ],
  "date_selectors": null,
  "author_selectors": null,
  "strip_selectors": [
    "//ins",
    "//aside",
    "//footer"
  ],
  "strip_id_or_class": [
    "twitter-tweet"
  ],
  "strip_image_src": null,
  "native_ad_selectors": null,
  "tidy": false,
  "prune": false,
  "autodetect_on_failure": true,
  "single_page_link_selectors": null,
  "next_page_link_selectors": null,
  "replace_strings": [
    [
      "data-src=\"",
      "data-src=\"https://images.motorsport-magazin.com/images"
    ],
    [
      "srcset=\"",
      "notneededsrcset=\""
    ]
  ],
  "http_headers": null,
  "tests": [
    {
      "url": "https://www.motorsport-magazin.com/dtm/news-246125-dtm-2018-rahmenprogramm-klassik-tourenwagen/",
      "contains": []
    },
    {
      "url": "https://www.motorsport-magazin.com/formel1/news-279920-formel-1-sebastian-vettel-niemand-wird-sich-an-mich-erinnern/",
      "contains": []
    }
  ]
}
