{
  "title_selectors": [
    "//h1[@class=\"articleHeadline\"]",
    "//meta[@property=\"og:title\"]/@content"
  ],
  "body_selectors": [
    "//section[@name=\"articleBody\"] | //p[@id=\"article-summary\"] | //header/figure[contains(@class, 'sizeMedium')]",
    "//div[contains(concat(' ',normalize-space(@class),' '),' story-body ')]",
    "//div[@id=\"article\"]",
    "//*[@itemprop=\"articleBody\"]",
    "//div[contains(concat(' ',normalize-space(@class),' '),' g-body-article-container ')]",
    "//article[@id='story']"
  ],
  "date_selectors": [
    "//meta[@property=\"article:published\"]/@content",
    "//meta[@itemprop=\"datePublished\"]/@content"
  ],
  "author_selectors": [
    "//meta[@name=\"byl\"]/@content"
  ],
  "strip_selectors": [
    "//div[contains(@class, \"doubleRule\")]",
    "//div[contains(@class, \"articleInline\")]//h6",
    "//a[contains(@href, 'nytimes.com/adx/')]",
    "//nyt_byline",
    "//span[contains(@class, 'slideshow') or contains(@class, 'video')]",
    "//p[@class='caption']//a[contains(., 'More Photos')]",
    "//figure//span[.='Image' or .='Video']",
    "//div[@aria-labelledby=\"modal-title\"]",
    "//button",
    "//div[starts-with(@id, 'story-ad-')]",
    "//aside",
    "//div[@data-test-id=\"RecommendedNewsletter\"]",
    "//div[@data-test-id=\"share-tools\"]",
    "//div[@role=\"complementary\"]",
    "//section[contains(@role, \"complementary\")]",
    "//video",
    "//span/span[contains(text(), 'Credit')]",
    "//span/span/span[contains(text(), 'Credit')]",
    "//img[contains(@class, 'post-screenshot')]",
    "//*[@aria-hidden=\"true\" and not(./parent::figcaption)]",
    "//*[@data-testid=\"share-tools\"]",
    "//*[contains(@id, '-recirc')]",
    "//div[contains(@style, \"visibility: hidden\")]//picture",
    "//div[contains(@style, \"visibility: hidden\")]//div[@data-testid=\"lazyimage-container\"]",
    "//div[@data-testid=\"inline-message\"]",
    "//h6[@class = 'kicker']"
  ],
  "strip_id_or_class": [
    "articleTools",
    "readerscomment",
    "enlargeThis",
    "pageLinks",
    "memberTools",
    "articleExtras",
    "singleAd",
    "byline",
    "dateline",
    "articleheadline",
    "articleBottomExtra",
    "shareTools",
    "story-meta",
    "related-coverage",
    "ad-header",
    "bottom-ad",
    "advert_item",
    "burst-app",
    "ResponsiveAd",
    "sponsor-wrapper",
    "robots-nocontent",
    "hidden",
    "NYT_MAIN_CONTENT_1_REGION",
    "related-links-block",
    "g-LABELS"
  ],
  "strip_image_src": null,
  "native_ad_selectors": null,
  "tidy": false,
  "prune": false,
  "autodetect_on_failure": true,
  "single_page_link_selectors": [
    "//link[contains(@href, 'pagewanted=all')]"
  ],
  "next_page_link_selectors": null,
  "replace_strings": [
    [
      "src='https://static01.nyt.com/packages/flash/multimedia/ICONS/transparent.png",
      "ignore-src='https://static01.nyt.com/packages/flash/multimedia/ICONS/transparent.png"
    ],
    [
      "data-mediaviewer-src='https://static01.nyt.com",
      "src='https://static01.nyt.com"
    ]
  ],
  "http_headers": {
    "user-agent": "curl/7.83.1"
  },
  "tests": [
    {
      "url": "http://www.nytimes.com/2011/07/24/books/review/an-academic-authors-unintentional-masterpiece.html",
      "contains": [
        "In this column I want to look at a not uncommon way of writing"
      ]
    },
    {
      "url": "http://www.nytimes.com/2012/06/10/arts/television/the-newsroom-aaron-sorkins-return-to-tv.html",
      "contains": [
        "IF you’ve seen enough of Aaron Sorkin’s theater"
      ]
    },
    {
      "url": "https://www.nytimes.com/interactive/2016/books/review/best-books.html",
      "contains": [
        "invention and speculation flow together"
      ]
    },
    {
      "url": "http://www.nytimes.com/2013/03/25/world/middleeast/israeli-military-responds-after-patrols-come-under-fire-from-syria.html",
      "contains": []
    },
    {
      "url": "http://www.nytimes.com/2013/08/15/nyregion/when-the-new-york-city-subway-ran-without-rails.html",
      "contains": []
    },
    {
      "url": "http://www.nytimes.com/2004/02/29/weekinreview/correspondence-class-consciousness-china-s-wealthy-live-creed-hobbes-darwin-meet.html",
      "contains": []
    },
    {
      "url": "http://www.nytimes.com/2014/06/19/opinion/gail-collins-romney-and-the-2016-contenders-huddle.html",
      "contains": []
    },
    {
      "url": "https://www.nytimes.com/interactive/2015/12/16/upshot/100000004092329.app.html?_r=2",
      "contains": []
    },
    {
      "url": "https://www.nytimes.com/2022/02/27/business/economy/price-increases-inflation.html",
      "contains": []
    }
  ]
}
