{
  "title_selectors": null,
  "body_selectors": null,
  "date_selectors": [
    "//meta[@property='og:article:published_time']/@content"
  ],
  "author_selectors": [
    "//p[@class=\"subtitle\"]//a"
  ],
  "strip_selectors": [
    "//p[@class=\"subtitle\"]"
  ],
  "strip_id_or_class": null,
  "strip_image_src": null,
  "native_ad_selectors": null,
  "tidy": false,
  "prune": false,
  "autodetect_on_failure": true,
  "single_page_link_selectors": null,
  "next_page_link_selectors": null,
  "replace_strings": null,
  "http_headers": null,
  "tests": [
    {
      "url": "https://ploum.net/sunrise-le-calendrier-du-futur/",
      "contains": []
    }
  ]
}
