{
  "title_selectors": null,
  "body_selectors": [
    "//article[contains(concat(' ',normalize-space(@class),' '),' content-view ')]",
    "//div[contains(@class, 'article-body__content__')]",
    "//div[@id='articleImage' or @id='frame_fd1fade'] | //span[@id='article-text'] | //div[@class='pageNavigation']",
    "//article[@itemtype=\"http://schema.org/NewsArticle\"]"
  ],
  "date_selectors": null,
  "author_selectors": null,
  "strip_selectors": [
    "//aside",
    "//header",
    "//div[contains(@data-testid, 'gallery')]",
    "//li[@class='next']",
    "//span[@class='articleLocation']",
    "//div[contains(@class, 'registration-prompt')]",
    "//*[@data-testid=\"toolbar-container\"]"
  ],
  "strip_id_or_class": [
    "article-meta",
    "related-items",
    "related-container",
    "share-in-article-container"
  ],
  "strip_image_src": null,
  "native_ad_selectors": null,
  "tidy": false,
  "prune": false,
  "autodetect_on_failure": true,
  "single_page_link_selectors": null,
  "next_page_link_selectors": null,
  "replace_strings": null,
  "http_headers": null,
  "tests": [
    {
      "url": "https://www.reuters.com/world/us/us-attorney-general-garland-confirms-fbi-investigating-trump-2022-08-11/",
      "contains": []
    },
    {
      "url": "https://www.reuters.com/investigates/special-report/usa-taser-experts/",
      "contains": [
        "Among the settlements examined by Reuters"
      ]
    },
    {
      "url": "https://www.reuters.com/investigates/adoption",
      "contains": [
        "There is one potential safeguard"
      ]
    }
  ]
}
