{
  "title_selectors": [
    "//article[@data-area=\"article\"]/@aria-label"
  ],
  "body_selectors": [
    "//article[@data-area=\"article\"]//header//div[contains(@class, 'leading-loose')] | //div[@data-article-el=\"body\"]"
  ],
  "date_selectors": [
    "//meta[@name=\"date\"]/@content"
  ],
  "author_selectors": [
    "//meta[@name=\"author\"]/@content"
  ],
  "strip_selectors": [
    "//div[@data-component=\"JWPlayer\"]",
    "//picture/following-sibling::noscript[1]",
    "//button",
    "//svg",
    "//*[@data-app-hidden=\"true\"]",
    "//aside",
    "//div[@data-article-el=\"body\"]//section/div[contains(./span/text(), 'Mehr zum Thema')]",
    "//div[@data-article-el=\"body\"]//div[contains(concat(\" \", normalize-space(@class), \" \"), \" my-32 \")]"
  ],
  "strip_id_or_class": [
    "jwplayer",
    "pointer-events-none",
    "border-separator-b"
  ],
  "strip_image_src": null,
  "native_ad_selectors": null,
  "tidy": false,
  "prune": false,
  "autodetect_on_failure": true,
  "single_page_link_selectors": null,
  "next_page_link_selectors": null,
  "replace_strings": [
    [
      "src=\"data",
      "data-src-disabled=\"data"
    ],
    [
      "data-src=\"",
      "src=\""
    ]
  ],
  "http_headers": null,
  "tests": [
    {
      "url": "https://www.spiegel.de/politik/deutschland/barbara-borchardt-skandal-die-linke-grinst-sich-eins-kolumne-a-c1e59f4c-9bbd-42e2-a144-81b7115584ef",
      "contains": [
        "Und sie kann es, weil sie keiner in die Schranken weist."
      ]
    },
    {
      "url": "http://www.spiegel.de/politik/deutschland/0,1518,787602,00.html",
      "contains": []
    },
    {
      "url": "http://www.spiegel.de/wirtschaft/soziales/griechenland-was-den-griechischen-buergern-nun-droht-a-1042682.html",
      "contains": []
    },
    {
      "url": "http://www.spiegel.de/spiegel/a-710880.html",
      "contains": []
    }
  ]
}
