{
  "title_selectors": [
    "//h1[@articleprop='headline']"
  ],
  "body_selectors": [
    "//figure[.//picture[@itemProp=\"contentUrl\"]] | //div[contains(@class, 'article-body')]"
  ],
  "date_selectors": [
    "//article//time/@datetime"
  ],
  "author_selectors": [
    "//a[@rel='author']"
  ],
  "strip_selectors": [
    "//article//div[contains(@class, 'content__secondary-column')]",
    "//aside",
    "//article//div[contains(@class, 'block-share')]",
    "//div[@class='submeta']",
    "//span[contains(@class, 'inline-expand-image')]",
    "//article//div[@class='kindleWidget']",
    "//article//div[@class='email-subscription']",
    "//article//script",
    "//article//figure[contains(@class, 'element-audio')]",
    "//article//a[contains(@style, 'display: none')]",
    "//article/div[@class='paidfor-band']",
    "//header",
    "//div[@class='content__main-column']",
    "//div[contains(@class, 'content-footer')]",
    "//footer",
    "//form",
    "//div[starts-with(@id, \"qanda-\")]",
    "//figure[contains(@data-spacefinder-type, \"NewsletterSignup\")]",
    "//figure[@data-atom-type=\"qanda\" or @data-atom-type=\"profile\"]",
    "//div[@data-print-layout=\"hide\"]",
    "//svg",
    "//gu-island",
    "//article//div[contains(@class, 'content__meta-container')]",
    "//iframe[@srcdoc]"
  ],
  "strip_id_or_class": [
    "sign-in-gate",
    "js-ad-slot",
    "hide-on-mobile",
    "reveal-caption",
    "readerquestions",
    "submeta",
    "site-message",
    "contributions__epic",
    "youtube-media-atom__overlay"
  ],
  "strip_image_src": null,
  "native_ad_selectors": [
    "//meta[@property='article:tag' and contains(@content, 'partner zone')]",
    "//meta[@property='video:tag' and contains(@content, 'partner zone')]"
  ],
  "tidy": false,
  "prune": false,
  "autodetect_on_failure": true,
  "single_page_link_selectors": null,
  "next_page_link_selectors": null,
  "replace_strings": null,
  "http_headers": null,
  "tests": [
    {
      "url": "http://www.theguardian.com/world/2013/oct/04/nsa-gchq-attack-tor-network-encryption",
      "contains": [
        "The National Security Agency has made repeated attempts to develop",
        "The agency did not directly address those questions, instead providing a statement."
      ]
    },
    {
      "url": "http://www.theguardian.com/world/2013/oct/03/edward-snowden-files-john-lanchester",
      "contains": [
        "In August, the editor of the Guardian rang me up and asked if I would spend a week in New York",
        "As the second most senior judge in the country, Lord Hoffmann, said in 2004 about a previous version of our anti-terrorism laws"
      ]
    },
    {
      "url": "http://www.theguardian.com/commentisfree/2014/jun/15/britishness-search-identity-my-part-in-camerons-odyssey",
      "contains": []
    },
    {
      "url": "http://www.theguardian.com/world/2016/feb/17/ankara-explosion-turkey-injures-large-number-of-people-reports-say",
      "contains": []
    },
    {
      "url": "http://www.theguardian.com/uk-news/2016/feb/11/trident-the-british-question",
      "contains": []
    },
    {
      "url": "https://www.theguardian.com/books/live/2016/oct/13/nobel-prize-in-literature-2016-liveblog",
      "contains": []
    },
    {
      "url": "http://www.theguardian.com/sustainable-business/fairtrade-partner-zone/chocolate-cocoa-production-risk",
      "contains": []
    },
    {
      "url": "https://www.theguardian.com/world/2019/feb/16/white-fragility-racism-interview-robin-diangelo",
      "contains": [
        "Nosheen Iqbal"
      ]
    },
    {
      "url": "https://www.theguardian.com/politics/2019/feb/05/theresa-may-wont-seamless-border-northern-ireland-brexit-belfast",
      "contains": [
        "Jessica Elgot"
      ]
    }
  ]
}
