{
  "title_selectors": null,
  "body_selectors": [
    "//article[@role=\"article\"]"
  ],
  "date_selectors": null,
  "author_selectors": null,
  "strip_selectors": [
    "//div[contains(@class, 'InlineAdWrapper')]",
    "//div[contains(@class, 'inlineRelatedArticles')]"
  ],
  "strip_id_or_class": null,
  "strip_image_src": null,
  "native_ad_selectors": null,
  "tidy": false,
  "prune": false,
  "autodetect_on_failure": true,
  "single_page_link_selectors": null,
  "next_page_link_selectors": null,
  "replace_strings": null,
  "http_headers": null,
  "tests": [
    {
      "url": "https://www.thetimes.co.uk/article/c1ee434c-86c8-11ec-9c9e-c5f8451b2970?shareToken=c02e044f08d0b4366620ca5987d0ce56",
      "contains": []
    }
  ]
}
